{
    "KPackageStructure": "Plasma/Applet",
    "KPlugin": {
        "Authors": [
            {
                "Email": "qydwhotmail@gmail.com",
                "Name": "Fushan Wen",
                "Name[ar]": "فيوشان وين",
                "Name[ast]": "Fushan Wen",
                "Name[bg]": "Fushan Wen",
                "Name[ca@valencia]": "Fushan Wen",
                "Name[ca]": "Fushan Wen",
                "Name[cs]": "Fushan Wen",
                "Name[de]": "Fushan Wen",
                "Name[eo]": "Fushan Wen",
                "Name[es]": "Fushan Wen",
                "Name[eu]": "Fushan Wen",
                "Name[fi]": "Fushan Wen",
                "Name[fr]": "Fushan Wen",
                "Name[gl]": "Fushan Wen",
                "Name[he]": "פושאן ון",
                "Name[hu]": "Fushan Wen",
                "Name[ia]": "Fushan Wen",
                "Name[is]": "Fushan Wen",
                "Name[it]": "Fushan Wen",
                "Name[ja]": "Fushan Wen",
                "Name[ka]": "Fushan Wen",
                "Name[ko]": "Fushan Wen",
                "Name[lt]": "Fushan Wen",
                "Name[lv]": "Fushan Wen",
                "Name[nl]": "Fushan Wen",
                "Name[pl]": "Fushan Wen",
                "Name[ru]": "Fushan Wen",
                "Name[sa]": "फुशन् वेन्",
                "Name[sk]": "Fushan Wen",
                "Name[sl]": "Fushan Wen",
                "Name[ta]": "ஃபுஷான் வென்",
                "Name[tr]": "Fuşan Wen",
                "Name[uk]": "Fushan Wen",
                "Name[x-test]": "xxFushan Wenxx",
                "Name[zh_CN]": "Fushan Wen",
                "Name[zh_TW]": "Fushan Wen"
            }
        ],
        "Description": "Shows whether any camera is currently used by an app",
        "Description[ar]": "يوضح ما إذا كان التطبيق يستخدم أي كاميرا حاليًا",
        "Description[bg]": "Показва дали камерата се използва от някое приложение",
        "Description[ca@valencia]": "Mostra si una aplicació utilitza actualment qualsevol càmera",
        "Description[ca]": "Mostra si una aplicació utilitza actualment qualsevol càmera",
        "Description[eo]": "Montras ĉu iu fotilo estas aktuale uzita fare de apo",
        "Description[es]": "Muestra si alguna aplicación está usando alguna cámara",
        "Description[eu]": "Kamera, aplikazioren batek unean erabiltzen duen edo ez erakusten du",
        "Description[fi]": "Näyttää, käyttävätkö sovellukset mitään kameraa nyt",
        "Description[fr]": "Indique si une caméra est actuellement utilisée par une application",
        "Description[gl]": "Amosa se hai algunha cámara en uso por parte dunha aplicación.",
        "Description[he]": "מציג האם המצלמה שלך משמשת יישום כלשהו",
        "Description[hu]": "Jelzi, hogy használja-e jelenleg bármilyen alkalmazás a kamerát",
        "Description[ia]": "Monstra si alcun camera es currentemente usate per un app",
        "Description[is]": "Sýnir hvort eitthvað forrit sé að nota myndavélina",
        "Description[it]": "Mostra se una fotocamera è attualmente utilizzata da un'applicazione",
        "Description[ja]": "カメラの使用状況を表示します",
        "Description[ka]": "აჩვენებს, გამოიყენება თუ არა კამერა აპის მიერ",
        "Description[ko]": "앱에서 카메라 사용 여부 표시",
        "Description[lt]": "Rodo ar esamu metu programos naudoja kamerą",
        "Description[lv]": "Parāda, vai kāda programma izmanto kameru",
        "Description[nl]": "Tonen of een camera nu door een toepassing wordt gebruikt",
        "Description[pa]": "ਵੇਖਾਓ ਕਿ ਕੀ ਐਪ ਵਲੋਂ ਕੋਈ ਵੀ ਕੈਮਰਾ ਇਸ ਵੇਲੇ ਵਰਤਿਆ ਜਾ ਰਿਹਾ ਹੈ",
        "Description[pl]": "Pokazuje, czy kamera jest obecnie używana przez aplikację",
        "Description[ru]": "Индикатор использования камеры приложениями",
        "Description[sa]": "सम्प्रति कश्चन चित्रग्राही अनुप्रयोगेन उपयुज्यते वा इति दर्शयति",
        "Description[sk]": "Zobrazuje, či niektorá aplikácia práve používa niektorú kameru.",
        "Description[sl]": "Prikazuje, ali aplikacija trenutno uporablja katero koli kamero",
        "Description[ta]": "எந்த செயலியாவது படக்கருவியை தற்போது பயன்படுத்துகிறதா என்பதைக் காட்டும்",
        "Description[tr]": "Herhangi bir uygulama tarafından kullanılan kamera olup olmadığını gösterir",
        "Description[uk]": "Показує, чи використовується якась камера програмою",
        "Description[x-test]": "xxShows whether any camera is currently used by an appxx",
        "Description[zh_CN]": "显示当前是否有应用正在使用相机",
        "Description[zh_TW]": "顯示是否有任何相機正被應用程式使用",
        "EnabledByDefault": true,
        "Icon": "camera-on-symbolic",
        "Id": "org.kde.plasma.cameraindicator",
        "License": "GPL-2.0+",
        "Name": "Camera Indicator",
        "Name[ar]": "مؤشر الكاميرا",
        "Name[bg]": "Индикатор на камерата",
        "Name[ca@valencia]": "Indicador de càmera",
        "Name[ca]": "Indicador de càmera",
        "Name[cs]": "Ukazatel fotoaparátu",
        "Name[eo]": "Fotila Indikilo",
        "Name[es]": "Indicador de la cámara",
        "Name[eu]": "Kamera adierazlea",
        "Name[fi]": "Kameraosoitin",
        "Name[fr]": "Indicateur d'appareil photo",
        "Name[gl]": "Indicador de cámara",
        "Name[he]": "מחוון מצלמה",
        "Name[hu]": "Kamerajelző",
        "Name[ia]": "Indicator de camera ",
        "Name[is]": "Myndavélarvísir",
        "Name[it]": "Indicatore fotocamera",
        "Name[ja]": "カメラの状態",
        "Name[ka]": "კამერის მაჩვენებელი",
        "Name[ko]": "카메라 표시기",
        "Name[lt]": "Kameros indikatorius",
        "Name[lv]": "Kameras indikators",
        "Name[nl]": "Camera-indicator",
        "Name[pa]": "ਕੈਮਰਾ ਸੰਕੇਤਕ",
        "Name[pl]": "Wskaźnik kamery",
        "Name[ru]": "Индикатор камеры",
        "Name[sa]": "चित्रग्राही सूचकः",
        "Name[sk]": "Indikátor kamery",
        "Name[sl]": "Indikator kamere",
        "Name[ta]": "படக்கருவி நிலைகாட்டி",
        "Name[tok]": "mu pi ilo lukin",
        "Name[tr]": "Kamera Göstergesi",
        "Name[uk]": "Індикатор камери",
        "Name[x-test]": "xxCamera Indicatorxx",
        "Name[zh_CN]": "相机指示器",
        "Name[zh_TW]": "相機指示器",
        "Website": "https://kde.org/plasma-desktop/"
    },
    "Keywords": "Camera;WebCam;Indicator;Privacy;",
    "X-Plasma-API-Minimum-Version": "6.0",
    "X-Plasma-NotificationAreaCategory": "Hardware"
}
